Make a simple boxplot plotting tbl — boxplot_tbl • CPOP
…
index
summarisation index, "1" for rows or "2" (default) for columns.

    Value

    A tibble

    Examples

data(cpop_data_binary, package = 'CPOP')
attach(cpop_data_binary)
set.seed(1)
boxplot_tbl(x = x1, index = 1)
#> # A tibble: 100 × 6
#>    object means medians      q1    q3  n_na
#>    <fct>  <dbl>   <dbl>   <dbl> <dbl> <int>
#>  1 001    0.959   0.897  0.332   1.64     0
#>  2 002    0.724   0.725  0.0824  1.47     0
#>  3 003    1.14    1.15   0.747   1.69     0
#>  4 004    0.953   0.882  0.171   1.35     0
#>  5 005    0.908   0.761 -0.0496  1.61     0
#>  6 006    1.15    1.21   0.538   1.54     0
#>  7 007    0.671   0.644 -0.0426  1.44     0
#>  8 008    1.30    1.38   0.455   2.05     0
#>  9 009    0.772   0.800  0.146   1.22     0
#> 10 010    0.902   0.848  0.162   1.46     0
#> # … with 90 more rows
…
