All three steps of CPOP modelling — cpop_model • CPOP
…
#> 3 X09--X17     0.722  0.521  
#> 4 X11--X14     0.130  0.00292
#> 5 X12--X20     0.404  0.170  
#> 6 X01--X07    -0.437 -0.408  
#> 7 X01--X15    -0.158 -0.334  
#> 8 X01--X17    -0.901 -0.644  
#> 9 X04--X12     0.353  0.431  
#> 
#> $cpop1_features
#>  [1] "X01--X10" "X05--X06" "X05--X09" "X09--X17" "X11--X14" "X12--X20"
#>  [7] "X16--X19" "X01--X07" "X01--X15" "X01--X17" "X04--X12" "X06--X16"
#> [13] "X08--X19"
#> 
#> $step_features
#> # A tibble: 78 x 6
#>    step  coef_model feature_name feature_value ever_selected_f… in_final_featur…
#>    <chr> <chr>      <chr>                <dbl> <lgl>            <lgl>           
#>  1 1     1          (Intercept)         0.232  FALSE            FALSE           
#>  2 1     1          X01--X10           -2.34   TRUE             TRUE            
#>  3 1     1          X03--X07            0.321  FALSE            FALSE           
#>  4 1     1          X04--X20            0.429  TRUE             FALSE           
#>  5 1     1          X05--X06            0.417  TRUE             TRUE            
#>  6 1     1          X05--X09           -0.270  TRUE             TRUE            
#>  7 1     1          X05--X16            0.0627 FALSE            FALSE           
#>  8 1     1          X06--X08            0.175  FALSE            FALSE           
#>  9 1     1          X06--X16            0.417  TRUE             TRUE            
#> 10 1     1          X06--X19            0.0950 FALSE            FALSE           
#> # … with 68 more rows
…
