Imputing gene expression values using CPOP model — impute_cpop • CPOP
…
#>  7 X01--X11    -0.372  -0.264 
#>  8 X01--X13    -0.319  -0.205 
#>  9 X01--X14    -0.0488 -0.138 
#> 10 X01--X17    -0.176  -0.0962
#> 11 X01--X18    -0.338  -0.260 
#> 12 X01--X19    -0.0219 -0.247 
#> 13 X04--X20     0.481   0.286 
#> 
#> $cpop1_features
#>  [1] "X01--X02" "X01--X03" "X01--X05" "X01--X06" "X01--X07" "X01--X08"
#>  [7] "X01--X09" "X01--X10" "X01--X11" "X01--X13" "X01--X14" "X01--X15"
#> [13] "X01--X16" "X01--X17" "X01--X18" "X01--X19" "X04--X12" "X04--X20"
#> 
#> $step_features
#> # A tibble: 148 x 6
#>    step  coef_model feature_name feature_value ever_selected_f… in_final_featur…
#>    <chr> <chr>      <chr>                <dbl> <lgl>            <lgl>           
#>  1 1     1          (Intercept)         0.217  FALSE            FALSE           
#>  2 1     1          X01--X02           -0.0269 TRUE             TRUE            
#>  3 1     1          X01--X03           -0.121  TRUE             TRUE            
#>  4 1     1          X01--X05           -0.0895 TRUE             TRUE            
#>  5 1     1          X01--X06           -0.103  TRUE             TRUE            
#>  6 1     1          X01--X07           -0.209  TRUE             TRUE            
#>  7 1     1          X01--X08           -0.108  TRUE             TRUE            
#>  8 1     1          X01--X09           -0.0988 TRUE             TRUE            
#>  9 1     1          X01--X10           -0.386  TRUE             TRUE            
#> 10 1     1          X01--X11           -0.0532 TRUE             TRUE            
#> # … with 138 more rows
…
