Naive glmnet fitting procedure — naive_glmnet • CPOP
…
#> 1se 0.09267    28  0.7935 0.05895       7
#> 
#> $glmnet2
#> 
#> Call:  glmnet::cv.glmnet(x = z2, y = y2, family = family, alpha = 1,      intercept = FALSE) 
#> 
#> Measure: Binomial Deviance 
#> 
#>      Lambda Index Measure      SE Nonzero
#> min 0.03627    49  0.7289 0.09643      12
#> 1se 0.09195    29  0.8213 0.07194       9
#> 
#> $coef_tbl
#> $coef_tbl[[1]]
#> # A tibble: 191 × 3
#>    coef_name     coef1   coef2
#>    <chr>         <dbl>   <dbl>
#>  1 (Intercept)  0       0     
#>  2 X01--X02    -0.0922 -0.0930
#>  3 X01--X03     0       0     
#>  4 X01--X04    -0.502  -1.07  
#>  5 X01--X05    -0.0663  0     
#>  6 X01--X06     0      -0.0877
#>  7 X01--X07     0       0     
#>  8 X01--X08     0      -0.311 
#>  9 X01--X09    -0.893  -0.269 
#> 10 X01--X10    -0.0945  0     
#> # … with 181 more rows
…
