An introduction to the cpop package • CPOP
…
## 1se 0.2305    13  0.4399 0.03554       2
## 
## $glmnet2
## 
## Call:  glmnet::cv.glmnet(x = z2, y = y2, alpha = 1, intercept = FALSE) 
## 
## Measure: Mean-Squared Error 
## 
##     Lambda Index Measure      SE Nonzero
## min 0.1337    19  0.4681 0.04475       4
## 1se 0.2565     5  0.5068 0.05371       2
## 
## $coef_tbl
## $coef_tbl[[1]]
## # A tibble: 191 × 3
##    coef_name    coef1   coef2
##    <chr>        <dbl>   <dbl>
##  1 (Intercept)  0      0     
##  2 X01--X02     0      0     
##  3 X01--X03     0      0     
##  4 X01--X04    -0.116 -0.0705
##  5 X01--X05     0      0     
##  6 X01--X06     0      0     
##  7 X01--X07     0      0     
##  8 X01--X08     0     -0.0235
##  9 X01--X09    -0.111 -0.0704
## 10 X01--X10     0      0     
## # … with 181 more rows
## 
## 
## attr(,"class")
## [1] "naive_glmnet" "list"
…
